{
    "prepare_queue": {
        "installed": [],
        "uninstalled": []
    },
    "config_munge": {
        "files": {
            "config.xml": {
                "parents": {
                    "/*": [
                        {
                            "xml": "<feature name=\"HackerNewsPlugin\"><param name=\"ios-package\" value=\"HackerNewsPlugin\" /></feature>",
                            "count": 1
                        }
                    ]
                }
            }
        }
    },
    "installed_plugins": {
        "cordova-plugin-whitelist": {
            "PACKAGE_NAME": "com.nortey"
        },
        "cordova-plugin-hackernews": {
            "PACKAGE_NAME": "com.nortey"
        }
    },
    "dependent_plugins": {},
    "modules": [
        {
            "id": "cordova-plugin-hackernews.device",
            "file": "plugins/cordova-plugin-hackernews/www/hackerNews.js",
            "pluginId": "cordova-plugin-hackernews",
            "clobbers": [
                "hackerNews"
            ]
        }
    ],
    "plugin_metadata": {
        "cordova-plugin-whitelist": "1.3.1",
        "cordova-plugin-hackernews": "0.2.3"
    }
}